[
    {
        "movieId": 1,
        "movieThumbnail": "movie_1",
        "movieDetails": {
            "movieName": "Smallfoot",
            "movieRealeaseYr": "2018"
        }
    },
    {
        "movieId": 2,
        "movieThumbnail": "movie_2",
        "movieDetails": {
            "movieName": "The Jungle Book",
            "movieRealeaseYr": "2016"
        }
    },
    {
        "movieId": 3,
        "movieThumbnail": "movie_3",
        "movieDetails": {
            "movieName": "The Revenant",
            "movieRealeaseYr": "2015"
        }
    },
    {
        "movieId": 4,
        "movieThumbnail": "movie_4",
        "movieDetails": {
            "movieName": "Avengers Infinity War",
            "movieRealeaseYr": "2018"
        }
    },
    {
        "movieId": 5,
        "movieThumbnail": "movie_5",
        "movieDetails": {
            "movieName": "Avengers",
            "movieRealeaseYr": "2016"
        }
    },
    {
        "movieId": 6,
        "movieThumbnail": "movie_6",
        "movieDetails": {
            "movieName": "Captain America",
            "movieRealeaseYr": "2015"
        }
    },
    {
        "movieId": 7,
        "movieThumbnail": "movie_7",
        "movieDetails": {
            "movieName": "Thor Ragnarok",
            "movieRealeaseYr": "2018"
        }
    },
    {
        "movieId": 8,
        "movieThumbnail": "movie_8",
        "movieDetails": {
            "movieName": "Thor",
            "movieRealeaseYr": "2016"
        }
    },
    {
        "movieId": 9,
        "movieThumbnail": "movie_9",
        "movieDetails": {
            "movieName": "Batman vs Superman",
            "movieRealeaseYr": "2015"
        }
    },
    {
        "movieId": 10,
        "movieThumbnail": "movie_10",
        "movieDetails": {
            "movieName": "Batman Begins",
            "movieRealeaseYr": "2018"
        }
    },
    {
        "movieId": 11,
        "movieThumbnail": "movie_11",
        "movieDetails": {
            "movieName": "Smallfoot",
            "movieRealeaseYr": "2018"
        }
    },
    {
        "movieId": 12,
        "movieThumbnail": "movie_12",
        "movieDetails": {
            "movieName": "First Man",
            "movieRealeaseYr": "2015"
        }
    },
    {
        "movieId": 13,
        "movieThumbnail": "movie_13",
        "movieDetails": {
            "movieName": "White Space",
            "movieRealeaseYr": "2000"
        }
    },
    {
        "movieId": 14,
        "movieThumbnail": "movie_14",
        "movieDetails": {
            "movieName": "Home Alone",
            "movieRealeaseYr": "1999"
        }
    },
    {
        "movieId": 15,
        "movieThumbnail": "movie_15",
        "movieDetails": {
            "movieName": "Cinderella",
            "movieRealeaseYr": "2015"
        }
    },
    {
        "movieId":16,
        "movieThumbnail": "movie_16",
        "movieDetails": {
            "movieName": "Twilight",
            "movieRealeaseYr": "2015"
        }
    },
    {
        "movieId":17,
        "movieThumbnail": "movie_17",
        "movieDetails": {
            "movieName": "Spider Man",
            "movieRealeaseYr": "2014"
        }
    },
    {
        "movieId":18,
        "movieThumbnail": "movie_18",
        "movieDetails": {
            "movieName": "The Incredibles",
            "movieRealeaseYr": "2004"
        }
    },
    {
        "movieId": 9,
        "movieThumbnail": "movie_9",
        "movieDetails": {
            "movieName": "Batman vs Superman",
            "movieRealeaseYr": "2015"
        }
    },
    {
        "movieId": 10,
        "movieThumbnail": "movie_10",
        "movieDetails": {
            "movieName": "Batman Begins",
            "movieRealeaseYr": "2018"
        }
    },
    {
        "movieId": 4,
        "movieThumbnail": "movie_4",
        "movieDetails": {
            "movieName": "Avengers Infinity War",
            "movieRealeaseYr": "2018"
        }
    },
    {
        "movieId": 19,
        "movieThumbnail": "movie_19",
        "movieDetails": {
            "movieName": "The Jungle Book",
            "movieRealeaseYr": "2016"
        }
    }
]